{
  "project_info": {
    "project_number": "20443038353",
    "firebase_url": "https://projectmantap-79659.firebaseio.com",
    "project_id": "projectmantap-79659",
    "storage_bucket": "projectmantap-79659.appspot.com"
  },
  "client": [
    {
      "client_info": {
        "mobilesdk_app_id": "1:20443038353:android:f4b47fc31401ceae6c3530",
        "android_client_info": {
          "package_name": "com.example.projectmantap11"
        }
      },
      "oauth_client": [
        {
          "client_id": "20443038353-8jh3hbbpa0qqiai8vr24eg7ucbblpktp.apps.googleusercontent.com",
          "client_type": 1,
          "android_info": {
            "package_name": "com.example.projectmantap11",
            "certificate_hash": "d7597a995ebad3560f3dfe9e9f1aa573565c9f93"
          }
        },
        {
          "client_id": "20443038353-738n9svdd5ih9et6n5qn0tve4doja6qi.apps.googleusercontent.com",
          "client_type": 3
        }
      ],
      "api_key": [
        {
          "current_key": "AIzaSyD9_U9ZWEaPIEtiAUkQUOFsGyHSgLAG2zM"
        }
      ],
      "services": {
        "appinvite_service": {
          "other_platform_oauth_client": [
            {
              "client_id": "20443038353-738n9svdd5ih9et6n5qn0tve4doja6qi.apps.googleusercontent.com",
              "client_type": 3
            }
          ]
        }
      }
    }
  ],
  "configuration_version": "1"
}